<svg width="832" height="295" viewBox="0 0 832 295" fill="none" xmlns="http://www.w3.org/2000/svg">
<path d="M17.3199 286.906L21.2348 290.821C21.6253 291.211 21.6253 291.844 21.2348 292.235C20.8443 292.625 20.2111 292.625 19.8206 292.235L15.9056 288.32C14.551 289.373 12.8487 290 11 290C6.58172 290 3 286.418 3 282C3 277.582 6.58172 274 11 274C15.4183 274 19 277.582 19 282C19 283.849 18.3729 285.551 17.3199 286.906ZM11 288C14.3137 288 17 285.314 17 282C17 278.686 14.3137 276 11 276C7.68629 276 5 278.686 5 282C5 285.314 7.68629 288 11 288Z" fill="#83BC37"/>
<path d="M40 20.7002C40 31.5002 31.3 40.2002 20.5 40.2002C9.7 40.2002 1 31.4002 1 20.7002C1 9.9002 9.7 1.2002 20.5 1.2002C31.3 1.2002 40 9.9002 40 20.7002Z" fill="#82BD36"/>
<path d="M22.5002 1.30029C24.3002 2.20029 26.0002 3.30029 27.4002 4.80029C30.7002 8.10029 32.6002 12.7003 32.6002 17.4003C32.6002 22.1003 30.7002 26.7003 27.4002 30.0003C24.1002 33.3003 19.5002 35.2003 14.8002 35.2003C11.2002 35.2003 7.7002 34.1003 4.7002 32.1003C8.2002 37.0003 14.0002 40.1003 20.5002 40.1003C31.3002 40.1003 40.0002 31.4003 40.0002 20.6003C40.0002 10.6003 32.4002 2.30029 22.5002 1.30029Z" fill="#6B9928"/>
<path d="M11 19V26H20L18 48H25L23 26H36L27 19H11Z" fill="#5B3C2A"/>
<path d="M9 53V45L11.5 48L13.5 45L15.5 48L17.5 45.1L19.5 48L21.5 45L23.5 48L25.5 45L27.5 48.1L29.5 45L31.5 48L34 45V53H9Z" fill="#6B9928"/>
<path d="M152.4 36.1002C152 36.3002 152 36.5002 151.8 36.8002C149.4 40.7002 147 44.7002 144.6 48.6002C144.4 48.9002 144.2 49.3002 144 49.6002C143.7 50.0002 143.4 50.2002 142.9 50.2002C141.4 50.2002 139.9 50.2002 138.5 50.2002C138.3 50.2002 138.1 50.2002 138 50.1002C137.7 50.0002 137.6 49.9002 137.5 49.6002C137.5 49.4002 137.5 49.1002 137.5 48.9002C137.5 41.9002 137.5 34.8002 137.5 27.8002C137.5 26.5002 137.6 26.4002 138.9 26.4002C140 26.4002 141.1 26.4002 142.3 26.4002C142.5 26.4002 142.7 26.4002 142.9 26.4002C143.3 26.4002 143.5 26.7002 143.6 27.1002C143.6 27.4002 143.6 27.7002 143.6 27.9002C143.6 31.4002 143.6 34.9002 143.6 38.3002C143.6 38.6002 143.6 39.0002 143.6 39.3002C143.9 39.3002 144 39.0002 144.1 38.9002C146.5 35.1002 148.8 31.3002 151.2 27.5002C151.3 27.4002 151.4 27.2002 151.5 27.0002C151.8 26.5002 152.2 26.2002 152.9 26.2002C154.4 26.2002 155.9 26.2002 157.4 26.2002C157.6 26.2002 157.8 26.2002 157.9 26.2002C158.2 26.2002 158.4 26.4002 158.4 26.7002C158.4 26.9002 158.5 27.2002 158.5 27.4002C158.5 34.5002 158.5 41.6002 158.5 48.7002C158.5 49.8002 158.4 50.0002 157.2 50.0002C156 50.0002 154.9 50.0002 153.7 50.0002C153.5 50.0002 153.3 50.0002 153.1 50.0002C152.7 49.9002 152.5 49.8002 152.5 49.4002C152.5 49.1002 152.5 48.8002 152.5 48.6002C152.5 44.7002 152.5 40.8002 152.5 36.9002C152.5 36.7002 152.5 36.5002 152.4 36.1002Z" fill="#5B3C2A"/>
<path d="M109.6 38.5002C109.5 31.7002 115.1 26.3002 121.7 26.2002C128.3 26.2002 134 31.5002 134 38.4002C134 45.1002 128.6 50.6002 121.8 50.6002C114.9 50.6002 109.5 45.0002 109.6 38.5002ZM127.8 38.4002C127.8 38.0002 127.8 37.6002 127.7 37.2002C127.6 36.8002 127.5 36.3002 127.3 35.9002C126.4 33.5002 124.3 32.1002 121.8 32.0002C119.3 32.0002 117.2 33.4002 116.2 35.8002C115.6 37.2002 115.5 38.7002 115.9 40.2002C116.6 42.7002 118.7 44.5002 121.3 44.7002C123.6 44.9002 126.1 43.7002 127.2 41.1002C127.6 40.3002 127.8 39.3002 127.8 38.4002Z" fill="#5B3C2A"/>
<path d="M227.2 50.0001C223.7 50.0001 220.2 50.0001 216.8 50.0001C216.5 50.0001 216.2 50.0001 216 50.0001C215.6 49.9001 215.4 49.7001 215.3 49.3001C215.3 49.2001 215.3 49.1001 215.3 49.0001C215.3 47.7001 215.3 46.3001 215.3 45.0001C215.3 44.9001 215.3 44.7001 215.3 44.6001C215.4 44.2001 215.6 43.9001 216.1 43.9001C216.6 43.9001 217.1 43.9001 217.6 43.9001C217.8 43.9001 218 43.8001 218.1 43.6001C218.3 43.1001 218.5 42.6001 218.7 42.1001C220.5 37.5001 222.2 32.9001 224 28.2001C224.2 27.7001 224.4 27.2001 224.7 26.7001C224.9 26.3001 225.2 26.1001 225.6 26.1001C226.8 26.1001 228 26.1001 229.2 26.1001C229.6 26.1001 230 26.3001 230.2 26.6001C230.4 27.0001 230.6 27.4001 230.8 27.8001C232.7 32.7001 234.6 37.7001 236.5 42.6001C237 43.9001 236.7 43.8001 238.2 43.8001H238.3C239.1 43.8001 239.3 44.0001 239.3 44.8001C239.3 46.2001 239.3 47.7001 239.3 49.1001C239.3 49.2001 239.3 49.3001 239.3 49.4001C239.3 49.7001 239.1 49.9001 238.8 49.9001C238.5 49.9001 238.2 49.9001 238 49.9001C234.1 50.0001 230.6 50.0001 227.2 50.0001ZM227.3 34.8001C226.8 35.7001 224.4 42.8001 224.3 43.7001C224.6 43.8001 224.9 43.8001 225.1 43.8001C226.3 43.8001 227.4 43.8001 228.6 43.8001C229 43.8001 229.4 43.8001 229.8 43.8001C230.2 43.8001 230.3 43.7001 230.1 43.3001C229.8 42.4001 229.5 41.6001 229.3 40.7001C228.6 38.8001 228 36.9001 227.3 34.8001Z" fill="#5B3C2A"/>
<path d="M210.4 50.0001C209.7 50.0001 208.9 50.0001 208.2 50.0001C207.7 50.0001 207.4 49.8001 207.2 49.3001C206.9 48.4001 206.6 47.6001 206.2 46.7001C206 46.1001 206 46.0001 205.3 46.0001C202.9 46.0001 200.5 46.0001 198.1 46.0001C198 46.0001 198 46.0001 197.9 46.0001C197.6 46.0001 197.4 46.1001 197.3 46.4001C197.1 47.1001 196.8 47.8001 196.5 48.5001C196.4 48.7001 196.3 48.9001 196.3 49.1001C196.1 49.6001 195.8 49.9001 195.2 49.9001C194.3 49.9001 193.4 49.9001 192.5 49.9001C192 49.9001 191.6 49.9001 191.1 49.9001C190.1 49.9001 190 49.7001 190.3 48.8001C190.7 47.8001 191.1 46.8001 191.5 45.8001C193.9 39.6001 196.3 33.5001 198.6 27.3001C198.7 27.2001 198.7 27.0001 198.8 26.9001C199 26.4001 199.4 26.1001 199.9 26.1001C200.4 26.1001 200.9 26.1001 201.4 26.1001C202.1 26.1001 202.9 26.1001 203.6 26.1001C204.1 26.1001 204.4 26.3001 204.6 26.7001C204.8 27.1001 205 27.5001 205.1 27.9001C207.8 34.8001 210.4 41.7001 213.1 48.6001C213.2 48.8001 213.3 49.0001 213.3 49.2001C213.4 49.5001 213.2 49.8001 212.8 49.9001C212.6 49.9001 212.4 49.9001 212.2 49.9001C211.7 50.0001 211 50.0001 210.4 50.0001ZM201.7 34.0001C200.9 36.3001 200.2 38.5001 199.5 40.7001C199.4 40.9001 199.5 41.1001 199.8 41.1001C201.1 41.1001 202.5 41.1001 203.8 41.1001C204.1 41.1001 204.1 41.0001 204.1 40.7001C203.4 38.6001 202.7 36.4001 202 34.3001C201.9 34.2001 201.8 34.2001 201.7 34.0001Z" fill="#5B3C2A"/>
<path d="M89.7002 38.3004C89.7002 34.9004 89.7002 31.4004 89.7002 28.0004C89.7002 27.7004 89.7002 27.4004 89.7002 27.1004C89.7002 26.8004 89.9002 26.6004 90.3002 26.6004C90.5002 26.6004 90.8002 26.6004 91.0002 26.6004C94.1002 26.6004 97.3002 26.6004 100.4 26.6004C105.1 26.5004 107.8 30.6004 107.9 33.9004C108 36.3004 107.3 38.3004 105.6 40.0004C104.2 41.3004 102.6 42.1004 100.7 42.1004C99.5002 42.1004 98.2002 42.1004 97.0002 42.1004C96.8002 42.1004 96.5002 42.1004 96.3002 42.1004C96.0002 42.1004 95.9002 42.2004 95.9002 42.6004C95.9002 42.9004 95.9002 43.2004 95.9002 43.4004C95.9002 45.4004 95.9002 47.3004 95.9002 49.3004C95.9002 50.2004 95.7002 50.4004 94.8002 50.4004C93.5002 50.4004 92.1002 50.4004 90.8002 50.4004C90.7002 50.4004 90.6002 50.4004 90.5002 50.4004C89.9002 50.3004 89.8002 50.2004 89.7002 49.6004C89.7002 49.3004 89.7002 49.0004 89.7002 48.8004V38.3004ZM95.9002 34.1004C95.9002 34.8004 95.9002 35.6004 95.9002 36.3004C95.9002 36.7004 96.0002 36.8004 96.3002 36.8004C97.4002 36.8004 98.4002 36.8004 99.5002 36.8004C100 36.8004 100.4 36.6004 100.8 36.3004C102.2 35.2004 102.1 32.9004 100.7 31.9004C100.4 31.7004 100 31.5004 99.5002 31.5004C98.4002 31.5004 97.4002 31.5004 96.3002 31.5004C96.0002 31.5004 95.9002 31.7004 95.9002 31.9004C95.9002 32.7004 95.9002 33.4004 95.9002 34.1004Z" fill="#5B3C2A"/>
<path d="M59.1999 26.2002C61.4999 26.2002 63.5999 26.8002 65.5999 27.9002C65.7999 28.0002 65.9999 28.2002 66.1999 28.3002C66.5999 28.6002 66.5999 28.9002 66.3999 29.3002C66.2999 29.4002 66.1999 29.5002 66.1999 29.6002C65.4999 30.6002 64.7999 31.6002 64.0999 32.6002C63.4999 33.4002 63.3999 33.5002 62.5999 32.9002C61.8999 32.4002 61.1999 32.1002 60.3999 32.0002C57.1999 31.5002 54.4999 33.2002 53.5999 36.2002C53.0999 37.8002 53.1999 39.4002 53.8999 40.9002C55.3999 44.3002 59.2999 45.3002 62.2999 43.6002C62.5999 43.4002 62.8999 43.2002 63.1999 43.1002C63.3999 43.0002 63.6999 43.0002 63.8999 43.2002C63.9999 43.3002 64.0999 43.5002 64.1999 43.6002C64.9999 44.7002 65.6999 45.8002 66.4999 46.9002C66.5999 47.0002 66.6999 47.1002 66.6999 47.3002C66.7999 47.6002 66.7999 47.8002 66.5999 48.1002C66.3999 48.2002 66.2999 48.4002 66.0999 48.5002C58.9999 53.0002 49.5999 49.3002 47.5999 41.1002C46.0999 34.9002 49.6999 28.1002 56.4999 26.4002C57.1999 26.3002 58.1999 26.2002 59.1999 26.2002Z" fill="#5B3C2A"/>
<path d="M169.4 38.2003C169.3 33.5003 172.4 27.7003 179.1 26.2003C182.3 25.5003 185.3 26.1003 188.1 27.8003C188.2 27.9003 188.3 27.9003 188.5 28.0003C189 28.4003 189.1 28.7003 188.7 29.2003C187.9 30.4003 187 31.6003 186.1 32.8003C185.8 33.2003 185.6 33.2003 185.1 33.0003C184.9 32.9003 184.8 32.8003 184.7 32.7003C180.8 30.4003 176 32.7003 175.6 37.4003C175.5 38.8003 175.7 40.1003 176.4 41.4003C178.2 44.6003 182 45.1003 184.6 43.6003C184.8 43.5003 185.1 43.3003 185.3 43.2003C185.6 43.0003 185.8 43.1003 186.1 43.3003C186.2 43.4003 186.3 43.5003 186.4 43.6003C187.2 44.7003 188 45.9003 188.7 47.0003C188.8 47.1003 188.9 47.2003 188.9 47.4003C189 47.7003 189 48.0003 188.7 48.2003C188.5 48.4003 188.3 48.5003 188.1 48.6003C180.5 53.3003 171 48.8003 169.5 40.3003C169.5 39.6003 169.5 38.9003 169.4 38.2003Z" fill="#5B3C2A"/>
<path d="M80.7999 40.9004V48.4004C80.7999 48.6004 80.7999 48.8004 80.7999 49.0004C80.7999 50.0004 80.5999 50.2004 79.5999 50.2004C78.2999 50.2004 76.9999 50.2004 75.6999 50.2004C75.5999 50.2004 75.3999 50.2004 75.2999 50.2004C74.8999 50.1004 74.5999 49.8004 74.5999 49.4004C74.5999 49.1004 74.5999 48.8004 74.5999 48.6004C74.5999 43.4004 74.5999 38.1004 74.5999 32.9004C74.5999 31.9004 74.6999 31.9004 73.5999 31.9004C72.2999 31.9004 71.0999 31.9004 69.7999 31.9004C69.5999 31.9004 69.2999 31.9004 69.0999 31.9004C68.6999 31.8004 68.3999 31.6004 68.3999 31.1004C68.3999 31.0004 68.3999 30.9004 68.3999 30.8004C68.3999 29.7004 68.3999 28.6004 68.3999 27.4004C68.3999 27.3004 68.3999 27.2004 68.3999 27.1004C68.4999 26.7004 68.6999 26.5004 69.0999 26.4004C69.2999 26.4004 69.5999 26.4004 69.7999 26.4004C75.0999 26.4004 80.3999 26.4004 85.6999 26.4004H85.7999C86.9999 26.4004 87.0999 26.5004 87.0999 27.6004C87.0999 28.6004 87.0999 29.6004 87.0999 30.6004C87.0999 30.7004 87.0999 30.8004 87.0999 30.9004C87.0999 31.5004 86.6999 31.9004 86.0999 31.9004C84.8999 31.9004 83.7999 31.9004 82.5999 31.9004C81.9999 31.9004 81.4999 31.8004 80.8999 32.0004C80.5999 32.6004 80.7999 33.2004 80.7999 33.8004C80.7999 36.1004 80.7999 38.5004 80.7999 40.9004Z" fill="#5B3C2A"/>
<path d="M156.6 8.80029C156.6 8.80029 150 10.7003 148.1 14.5003C146.2 18.3003 147.2 24.0003 147.2 24.0003C147.2 24.0003 153.8 22.1003 155.7 18.3003C157.6 14.4003 156.6 8.80029 156.6 8.80029Z" fill="#82BD36"/>
<path d="M26.1 132.8C26 132.8 25.8 132.8 25.7 132.7L1.1 108C1 107.9 1 107.8 1 107.6C1 107.5 1.1 107.3 1.1 107.2L25.7 82.6002C25.9 82.4002 26.2 82.4002 26.4 82.6002C26.6 82.8002 26.6 83.1002 26.4 83.3002L2.2 107.6L26.5 131.9C26.7 132.1 26.7 132.4 26.5 132.6C26.4 132.7 26.3 132.8 26.1 132.8Z" fill="white"/>
<path d="M29.9001 132.5C29.8001 132.5 29.6001 132.5 29.5001 132.4C29.3001 132.2 29.3001 131.9 29.5001 131.7L53.8001 107.4L29.5001 83.1C29.3001 82.9 29.3001 82.6 29.5001 82.4C29.7001 82.2 30.0001 82.2 30.2001 82.4L54.9001 107C55.0001 107.1 55.0001 107.2 55.0001 107.4C55.0001 107.5 54.9001 107.7 54.9001 107.8L30.3001 132.4C30.1001 132.5 30.0001 132.5 29.9001 132.5Z" fill="white"/>
<path d="M546 185C559.807 185 571 173.807 571 160C571 146.193 559.807 135 546 135C532.193 135 521 146.193 521 160C521 173.807 532.193 185 546 185Z" fill="#82BD36"/>
<path d="M442 185C455.807 185 467 173.807 467 160C467 146.193 455.807 135 442 135C428.193 135 417 146.193 417 160C417 173.807 428.193 185 442 185Z" fill="#82BD36"/>
<path d="M390 185C403.807 185 415 173.807 415 160C415 146.193 403.807 135 390 135C376.193 135 365 146.193 365 160C365 173.807 376.193 185 390 185Z" fill="#82BD36"/>
<path d="M650 185C663.807 185 675 173.807 675 160C675 146.193 663.807 135 650 135C636.193 135 625 146.193 625 160C625 173.807 636.193 185 650 185Z" fill="#82BD36"/>
<path d="M702 185C715.807 185 727 173.807 727 160C727 146.193 715.807 135 702 135C688.193 135 677 146.193 677 160C677 173.807 688.193 185 702 185Z" fill="#82BD36"/>
<path d="M754 185C767.807 185 779 173.807 779 160C779 146.193 767.807 135 754 135C740.193 135 729 146.193 729 160C729 173.807 740.193 185 754 185Z" fill="#82BD36"/>
<path d="M494 185C507.807 185 519 173.807 519 160C519 146.193 507.807 135 494 135C480.193 135 469 146.193 469 160C469 173.807 480.193 185 494 185Z" fill="#82BD36"/>
<path d="M338 185C351.807 185 363 173.807 363 160C363 146.193 351.807 135 338 135C324.193 135 313 146.193 313 160C313 173.807 324.193 185 338 185Z" fill="#82BD36"/>
<path d="M399.8 159.6C400.6 159.6 401.2 160.2 401.2 161V169C401.2 169.8 400.6 170.4 399.8 170.4H385.8C385 170.4 384.4 169.8 384.4 169V161C384.4 160.2 385 159.6 385.8 159.6H399.8ZM399.8 158H385.8C384.1 158 382.8 159.3 382.8 161V169C382.8 170.7 384.1 172 385.8 172H399.8C401.5 172 402.8 170.7 402.8 169V161C402.8 159.3 401.5 158 399.8 158Z" fill="white"/>
<path d="M450.4 160.4L449.9 160.9C449.8 162 448.5 164 448.1 164.4L442.8 169.7L440.5 167.4L445.8 162.1C446.3 161.6 448.1 160.4 449.2 160.3L449.7 159.7C449.9 159.5 450.2 159.5 450.4 159.7C450.5 159.9 450.5 160.2 450.4 160.4Z" fill="white"/>
<path d="M441.8 170.6L438 174.4C437.4 175 436.2 175.2 435.6 174.5C435 173.9 435.2 172.5 435.7 172L439.5 168.2L441.8 170.6Z" fill="white"/>
<path d="M455 150.1V164.1C455 165.2 454.1 166.1 453 166.1H449.5C449 166.1 448.5 165.6 448.5 165.1C448.5 164.6 449 164.1 449.5 164.1H453V154.1H431V164.1H440.5C441.1 164.1 441.5 164.6 441.5 165.1C441.5 165.6 441.1 166.1 440.5 166.1H431C429.9 166.1 429 165.2 429 164.1V150.1C429 149.6 429.5 149.1 430 149.1H454C454.5 149.1 455 149.5 455 150.1Z" fill="white"/>
<path d="M402.8 162H382.8V165H402.8V162Z" fill="white"/>
<path d="M552.5 165.8C553.218 165.8 553.8 165.218 553.8 164.5C553.8 163.782 553.218 163.2 552.5 163.2C551.782 163.2 551.2 163.782 551.2 164.5C551.2 165.218 551.782 165.8 552.5 165.8Z" fill="white"/>
<path d="M546 167.9C548.154 167.9 549.9 166.378 549.9 164.5C549.9 162.622 548.154 161.1 546 161.1C543.846 161.1 542.1 162.622 542.1 164.5C542.1 166.378 543.846 167.9 546 167.9Z" fill="white"/>
<path d="M539.5 165.8C540.218 165.8 540.8 165.218 540.8 164.5C540.8 163.782 540.218 163.2 539.5 163.2C538.782 163.2 538.2 163.782 538.2 164.5C538.2 165.218 538.782 165.8 539.5 165.8Z" fill="white"/>
<path d="M535 158V171H557V158H535ZM555.4 166.6L554.8 167.2C554.7 167.2 554.6 167.2 554.6 167.2C553.9 167.2 553.3 167.8 553.3 168.5C553.3 168.6 553.3 168.7 553.3 168.7L552.7 169.3H539.5L538.9 168.7C538.9 168.6 538.9 168.5 538.9 168.5C538.9 167.8 538.3 167.2 537.6 167.2C537.5 167.2 537.4 167.2 537.4 167.2L536.8 166.6V162.4L537.4 161.8C537.5 161.8 537.6 161.8 537.6 161.8C538.3 161.8 538.9 161.2 538.9 160.5C538.9 160.4 538.9 160.3 538.9 160.3L539.5 159.7H552.7L553.3 160.3C553.3 160.4 553.3 160.5 553.3 160.5C553.3 161.2 553.9 161.8 554.6 161.8C554.7 161.8 554.8 161.8 554.8 161.8L555.4 162.4V166.6Z" fill="white"/>
<path d="M549.7 155.7C550.418 155.7 551 155.118 551 154.4C551 153.682 550.418 153.1 549.7 153.1C548.982 153.1 548.4 153.682 548.4 154.4C548.4 155.118 548.982 155.7 549.7 155.7Z" fill="white"/>
<path d="M533.5 158C533.5 157.2 534.2 156.5 535 156.5H535.8V156.4L547.4 150.1L548.3 150.4C548.3 150.5 548.3 150.6 548.4 150.6C548.7 151.2 549.5 151.5 550.2 151.1C550.3 151.1 550.3 151 550.4 150.9L551.3 151.2L553.3 154.9L553 155.8C552.9 155.8 552.8 155.8 552.8 155.9C552.5 156.1 552.3 156.3 552.2 156.6H556L553.4 151.9L550.5 146.6L545.2 149.5L536.4 154.3L531.1 157.2L533.4 161.3L533.5 158Z" fill="white"/>
<path d="M542.4 154.5C541.5 155 540.9 155.7 540.5 156.5H547.7C547.6 156.2 547.6 155.9 547.4 155.6C546.5 154 544.3 153.5 542.4 154.5Z" fill="white"/>
<path d="M380.8 161C380.8 158.2 383 156 385.8 156H398.4L396.5 148.3C396.1 146.7 394.5 145.7 392.9 146.1L379.3 149.4C377.7 149.8 376.7 151.4 377.1 153L379 160.8C379.2 161.8 379.9 162.5 380.8 162.9V161ZM394.7 150.3L395.5 153.7L392.1 154.5L391.3 151.1L394.7 150.3Z" fill="white"/>
<path d="M441.5 158.1H433.5C432.9 158.1 432.5 157.7 432.5 157.1C432.5 156.5 432.9 156.1 433.5 156.1H441.5C442.1 156.1 442.5 156.5 442.5 157.1C442.5 157.6 442.1 158.1 441.5 158.1Z" fill="white"/>
<path d="M450.5 158.1H446.5C445.9 158.1 445.5 157.7 445.5 157.1C445.5 156.5 445.9 156.1 446.5 156.1H450.5C451.1 156.1 451.5 156.5 451.5 157.1C451.5 157.6 451.1 158.1 450.5 158.1Z" fill="white"/>
<path d="M441.5 161.1H433.5C432.9 161.1 432.5 160.7 432.5 160.1C432.5 159.5 432.9 159.1 433.5 159.1H441.5C442.1 159.1 442.5 159.5 442.5 160.1C442.5 160.6 442.1 161.1 441.5 161.1Z" fill="white"/>
<path d="M440 174.9C439.8 174.9 439.6 174.8 439.4 174.7C439.1 174.4 439.1 173.9 439.4 173.6L443.4 169.6C443.7 169.3 444.2 169.3 444.5 169.6C444.8 169.9 444.8 170.4 444.5 170.7L440.5 174.7C440.4 174.8 440.2 174.9 440 174.9Z" fill="white"/>
<path d="M488.5 168.8C489.77 168.8 490.8 167.77 490.8 166.5C490.8 165.23 489.77 164.2 488.5 164.2C487.23 164.2 486.2 165.23 486.2 166.5C486.2 167.77 487.23 168.8 488.5 168.8Z" fill="white"/>
<path d="M502.5 168.8C503.77 168.8 504.8 167.77 504.8 166.5C504.8 165.23 503.77 164.2 502.5 164.2C501.23 164.2 500.2 165.23 500.2 166.5C500.2 167.77 501.23 168.8 502.5 168.8Z" fill="white"/>
<path d="M507.2 158L505 155C504.5 154.4 504.2 154 503.5 154H499C498.4 154 498 154.4 498 155V165C498 165.5 498.4 166 499 166C499.2 164.3 500.7 162.9 502.5 162.9C504.3 162.9 505.8 164.2 506 166H507C507.6 166 508 165.6 508 165C508 165 508 160.9 508 160C508 159.1 507.2 158 507.2 158ZM501 160V156H503.4C503.6 156 503.8 156.2 503.8 156.2L505.9 159.1C506.1 159.4 506.3 159.7 506.3 159.9H501V160Z" fill="white"/>
<path d="M496 151H483C482.4 151 482 151.4 482 152V165C482 165.6 482.4 166 483 166H485C485.2 164.3 486.7 162.9 488.5 162.9C490.3 162.9 491.8 164.2 492 166H496C496.6 166 497 165.6 497 165V152C497 151.4 496.6 151 496 151Z" fill="white"/>
<path d="M286 185C299.807 185 311 173.807 311 160C311 146.193 299.807 135 286 135C272.193 135 261 146.193 261 160C261 173.807 272.193 185 286 185Z" fill="#82BD36"/>
<path d="M294 169C293.8 169 293.7 169 293.6 168.9C293.3 168.8 293.2 168.5 293.1 168.3L287.1 147.3C286.9 146.8 287.3 146.2 287.8 146.1C288.3 145.9 288.9 146.3 289 146.8L294.7 166.7L298.7 165.1C299.2 164.9 299.8 165.1 300 165.7C300.2 166.2 300 166.8 299.4 167L294.4 169C294.3 169 294.1 169 294 169Z" fill="white"/>
<path d="M288.8 161.1L285.7 150.8C285.6 150.4 285.2 150.1 284.7 150.1H277C276.5 150.1 276 150.6 276 151.1V159.1H275C274.5 159.1 274 159.6 274 160.1V165.1C274 165.4 274.1 165.6 274.3 165.8C275.1 164.9 276.2 164.3 277.5 164.3C279.9 164.3 281.8 166.2 281.8 168.6C281.8 168.8 281.8 168.9 281.7 169.1H283.2C283.1 168.8 283.1 168.4 283.1 168.1C283.1 165.5 285.3 163.3 287.9 163.3C288.4 163.3 288.9 163.4 289.3 163.5V162C289.4 161.6 289.1 161.2 288.8 161.1ZM284 161L283 160C282.6 159.5 282.2 159 281.5 159H278V152H284L286.7 161H284Z" fill="white"/>
<path d="M288 165.8C289.2 165.8 290.2 166.8 290.2 168C290.2 169.2 289.2 170.2 288 170.2C286.8 170.2 285.8 169.2 285.8 168C285.8 166.8 286.8 165.8 288 165.8ZM288 164.2C285.9 164.2 284.2 165.9 284.2 168C284.2 170.1 285.9 171.8 288 171.8C290.1 171.8 291.8 170.1 291.8 168C291.8 165.9 290.1 164.2 288 164.2Z" fill="white"/>
<path d="M277.5 166.6C278.6 166.6 279.4 167.5 279.4 168.5C279.4 169.6 278.5 170.4 277.5 170.4C276.4 170.4 275.6 169.5 275.6 168.5C275.6 167.4 276.4 166.6 277.5 166.6ZM277.5 165.2C275.7 165.2 274.2 166.7 274.2 168.5C274.2 170.3 275.7 171.8 277.5 171.8C279.3 171.8 280.8 170.3 280.8 168.5C280.8 166.7 279.3 165.2 277.5 165.2Z" fill="white"/>
<path d="M350.7 159.6C350.5 159.8 350.3 159.9 350 159.9C349.7 159.9 349.5 159.8 349.3 159.6L338.2 148.5L327.2 159.5C326.8 159.9 326.2 159.9 325.8 159.5C325.4 159.1 325.4 158.5 325.8 158.1L337.5 146.4C337.9 146 338.5 146 338.9 146.4L344.2 151.7V146.9C344.2 146.3 344.6 145.9 345.2 145.9H346.2C346.7 145.9 347.2 146.3 347.2 146.9V154.7L350.7 158.2C351.1 158.6 351.1 159.2 350.7 159.6Z" fill="white"/>
<path d="M338 150.4L327 161.4V166.9C327 168.6 328.3 169.9 330 169.9H346C347.7 169.9 349 168.6 349 166.9V161.4L338 150.4ZM341 166.9C341 167.5 340.6 167.9 340 167.9H336C335.4 167.9 335 167.5 335 166.9V160.9C335 160.3 335.4 159.9 336 159.9H340C340.6 159.9 341 160.3 341 160.9V166.9Z" fill="white"/>
<path d="M806 185C819.807 185 831 173.807 831 160C831 146.193 819.807 135 806 135C792.193 135 781 146.193 781 160C781 173.807 792.193 185 806 185Z" fill="#82BD36"/>
<path d="M805.2 147.4L792.8 152.3V165.7L807.8 173.1L818.8 165.7V152.3L805.2 147.4ZM807.8 170.7L807.6 170.8L794.8 164.5V153.7H794.9L807.8 158.8V170.7ZM796.2 153.1L800.5 151.4L812.1 155.9L808.4 157.9L796.2 153.1ZM814.6 158L812.6 159.3C812.3 159.5 812 159.4 812 159C812 158.6 812.2 158.2 812.5 158L814.5 156.8C814.8 156.6 815 156.8 815 157.1C815.1 157.4 814.9 157.8 814.6 158ZM813.2 155.3L801.8 150.9L805.1 149.6L816.3 153.6L813.2 155.3Z" fill="white"/>
<path d="M598 185C611.807 185 623 173.807 623 160C623 146.193 611.807 135 598 135C584.193 135 573 146.193 573 160C573 173.807 584.193 185 598 185Z" fill="#82BD36"/>
<path d="M610.6 161.1C610.2 160.6 609.3 160.2 607.5 161.2C607.7 160.5 607.1 160 606.4 160C605.8 160 605.1 160.2 604.5 160.7C603.7 159.6 602.8 159.7 601.2 160.8C600.6 161.2 600 161.5 599.6 161.8C599.5 161.9 599.4 161.9 599.3 162C599.5 162 599.6 162.1 599.8 162.1C602.1 162.1 603.9 162.1 603.9 164.1C603.9 165.6 602.1 166.1 601.2 166.1H596.9C595.1 166.1 593.4 164.3 593.4 164.3C593.4 164.3 595.4 165.1 596.9 165.1H601.2C601.2 165.1 602.9 165 602.9 164.1C602.9 163.2 602.4 163.1 599.8 163.1C598.1 163.1 596.3 162.1 596.3 162.1C596.3 162.1 594.5 160.8 594 160.5C592.7 159.7 591.7 158.9 589.5 159.8C588.1 160.4 585 161.8 585 161.8L587.8 168.1L589.2 167.2C590 166.7 590.4 166.6 591.5 167.1C592.5 167.6 595.6 169.2 596.4 169.6C598.8 170.7 599.8 169.7 600.9 169.1C601.9 168.5 608.8 164 609.5 163.4C610.7 162.5 611.1 161.8 610.6 161.1Z" fill="white"/>
<path d="M598.4 153.2C596.6 153.2 595.1 154.7 595.1 156.5C595.1 158.3 596.6 159.8 598.4 159.8C600.2 159.8 601.7 158.3 601.7 156.5C601.7 154.7 600.3 153.2 598.4 153.2ZM598.9 158H597.9V156H597.1L598.1 155H598.9V158Z" fill="white"/>
<path d="M602.4 149.2C601.1 149.2 600.1 150.2 600.1 151.5C600.1 151.7 600.1 151.9 600.2 152C601.1 152.4 601.9 153 602.4 153.8C603.7 153.8 604.7 152.8 604.7 151.5C604.7 150.2 603.7 149.2 602.4 149.2ZM602.8 152.6H602.1V151.2H601.6L602.3 150.5H602.8V152.6Z" fill="white"/>
<path d="M653 163C654.105 163 655 162.105 655 161C655 159.895 654.105 159 653 159C651.895 159 651 159.895 651 161C651 162.105 651.895 163 653 163Z" fill="white"/>
<path d="M645 163C646.105 163 647 162.105 647 161C647 159.895 646.105 159 645 159C643.895 159 643 159.895 643 161C643 162.105 643.895 163 645 163Z" fill="white"/>
<path d="M661.9 160V162C661.9 163 661.4 163.9 660.7 164.5C660.2 168.8 657.6 170.6 657.4 170.7C657.3 170.8 655.5 171.7 651.3 171.8C650.8 172.4 649.9 172.8 649 172.8C647.5 172.8 646.2 171.8 646.2 170.5C646.2 169.2 647.5 168.2 649 168.2C650.4 168.2 651.6 169.1 651.8 170.2C654.9 170 656.4 169.5 656.6 169.4C656.9 169.2 658.5 167.9 659 165.1H658.3C657.8 165.5 657.3 165.8 656.8 166C656.5 166.9 656 167.8 655.4 168.6C655.1 169 654.4 169.1 654 168.7C653.6 168.3 653.5 167.7 653.9 167.3C654.5 166.6 654.9 165.7 655.1 164.8C655.2 164.3 655.6 164 656.1 164C656.3 164 656.7 163.8 657.1 163.5V161C656.6 161 656.1 160.6 656.1 160V159.1C656 157.9 655.8 156.9 655.5 156C652.4 156.1 647.9 159.1 646.1 154C644.9 157.5 643.8 156.7 642.4 157.2C642.2 157.8 642.2 158.5 642.1 159.2V160.1C642.1 160.7 641.6 161.1 641.1 161.1C640.8 161.1 640.5 161 640.3 160.8C640.2 161.1 640.1 161.5 640.1 162C640.1 163 641.7 164.1 642.1 164.2C642.5 164.2 643 164.6 643.1 165C643.4 166.3 644.1 167.5 645.2 168.4C645.6 168.8 645.7 169.4 645.3 169.8C645.1 170 644.8 170.2 644.5 170.2C644.3 170.2 644 170.1 643.9 170C642.6 168.9 641.7 167.6 641.2 166.1C639.8 165.6 638 164 638 162.1C638 160.8 638.5 159.7 639.2 159C638.2 150.8 643.4 147.3 649 147.3C654.2 147.3 658.9 150.3 658.9 157.3H659C660.7 157 661.9 158.3 661.9 160Z" fill="white"/>
<path d="M715.6 153.5L709.5 147.4C709.2 147.1 708.7 147.1 708.4 147.4L690.3 165.5C690.2 165.7 690.1 165.9 690.1 166.1C690.1 166.3 690.2 166.5 690.3 166.7L696.4 172.8C696.6 172.9 696.8 173 697 173C697.2 173 697.4 172.9 697.6 172.8L715.7 154.7C715.8 154.5 715.9 154.3 715.9 154.1C715.8 153.9 715.8 153.7 715.6 153.5ZM696.9 171.1L691.9 166.1L693.1 164.9L694.6 166.4C694.8 166.6 695 166.6 695.2 166.6C695.4 166.6 695.6 166.5 695.8 166.4C696.1 166.1 696.1 165.6 695.8 165.3L694.3 163.8L695.3 162.8L696.8 164.3C696.9 164.5 697.2 164.5 697.4 164.5C697.6 164.5 697.8 164.4 698 164.3C698.3 164 698.3 163.5 698 163.2L696.5 161.7L697.5 160.7L700.4 163.6C700.6 163.8 700.8 163.8 701 163.8C701.2 163.8 701.4 163.7 701.6 163.6C701.9 163.3 701.9 162.8 701.6 162.5L698.7 159.6L699.7 158.6L701.2 160.1C701.3 160.3 701.6 160.3 701.8 160.3C702 160.3 702.2 160.2 702.4 160.1C702.7 159.8 702.7 159.3 702.4 159L700.9 157.5L701.9 156.5L703.4 158C703.6 158.1 703.8 158.2 704 158.2C704.2 158.2 704.4 158.1 704.6 158C704.9 157.7 704.9 157.2 704.6 156.9L703.1 155.4L704.1 154.4L707 157.3C707.2 157.5 707.4 157.5 707.6 157.5C707.8 157.5 708 157.4 708.2 157.3C708.5 157 708.5 156.5 708.2 156.2L705.3 153.3L706.3 152.3L707.8 153.8C708 154 708.2 154 708.4 154C708.6 154 708.8 153.9 709 153.8C709.3 153.5 709.3 153 709 152.7L707 151L708.9 149.1L713.9 154.1L696.9 171.1Z" fill="white"/>
<path d="M757 169V170.5C757 170.9 756.7 171.2 756.2 171.2H755.6C755.3 171.8 754.7 172.2 754 172.2C753.3 172.2 752.7 171.8 752.4 171.2H751.8C751.4 171.2 751 170.9 751 170.5V169C751 168.6 751.3 168.2 751.8 168.2H756.3C756.7 168.3 757 168.6 757 169Z" fill="white"/>
<path d="M754 153.4C750.8 153.4 748.2 156 748.2 159.2C748.2 162.5 751 164.4 751 166.1V166.5C751 166.9 751.3 167.2 751.7 167.2H756.2C756.6 167.2 756.9 166.9 756.9 166.5V166.1C756.9 164.4 759.7 162.5 759.7 159.2C759.8 156 757.2 153.4 754 153.4ZM750.9 161.3C750.5 160.7 750.2 159.9 750.2 159.1C750.2 157 751.9 155.3 754 155.3C754.7 155.3 755.4 155.5 756 155.9C755.9 155.9 755.9 155.9 755.8 155.9C753.1 155.9 750.9 158.1 750.9 160.8C750.8 160.9 750.8 161.1 750.9 161.3Z" fill="white"/>
<path d="M754 151.3C753.4 151.3 753 150.9 753 150.3V147.3C753 146.7 753.4 146.3 754 146.3C754.6 146.3 755 146.7 755 147.3V150.3C755 150.8 754.6 151.3 754 151.3Z" fill="white"/>
<path d="M766 160.3H763C762.4 160.3 762 159.9 762 159.3C762 158.7 762.4 158.3 763 158.3H766C766.6 158.3 767 158.7 767 159.3C767 159.8 766.6 160.3 766 160.3Z" fill="white"/>
<path d="M745 160.3H742C741.4 160.3 741 159.9 741 159.3C741 158.7 741.4 158.3 742 158.3H745C745.6 158.3 746 158.7 746 159.3C746 159.8 745.6 160.3 745 160.3Z" fill="white"/>
<path d="M762.5 168.8C762.2 168.8 762 168.7 761.8 168.5L759.7 166.4C759.3 166 759.3 165.4 759.7 165C760.1 164.6 760.7 164.6 761.1 165L763.2 167.1C763.6 167.5 763.6 168.1 763.2 168.5C763 168.7 762.7 168.8 762.5 168.8Z" fill="white"/>
<path d="M747.6 153.9C747.3 153.9 747.1 153.8 746.9 153.6L744.8 151.5C744.4 151.1 744.4 150.5 744.8 150.1C745.2 149.7 745.8 149.7 746.2 150.1L748.3 152.2C748.7 152.6 748.7 153.2 748.3 153.6C748.1 153.8 747.9 153.9 747.6 153.9Z" fill="white"/>
<path d="M745.5 168.8C745.2 168.8 745 168.7 744.8 168.5C744.4 168.1 744.4 167.5 744.8 167.1L746.9 165C747.3 164.6 747.9 164.6 748.3 165C748.7 165.4 748.7 166 748.3 166.4L746.2 168.5C746 168.7 745.8 168.8 745.5 168.8Z" fill="white"/>
<path d="M760.4 153.9C760.1 153.9 759.9 153.8 759.7 153.6C759.3 153.2 759.3 152.6 759.7 152.2L761.8 150.1C762.2 149.7 762.8 149.7 763.2 150.1C763.6 150.5 763.6 151.1 763.2 151.5L761.1 153.6C760.9 153.8 760.6 153.9 760.4 153.9Z" fill="white"/>
<path d="M130 185C143.807 185 155 173.807 155 160C155 146.193 143.807 135 130 135C116.193 135 105 146.193 105 160C105 173.807 116.193 185 130 185Z" fill="#82BD36"/>
<path d="M182 185C195.807 185 207 173.807 207 160C207 146.193 195.807 135 182 135C168.193 135 157 146.193 157 160C157 173.807 168.193 185 182 185Z" fill="#82BD36"/>
<path d="M234 185C247.807 185 259 173.807 259 160C259 146.193 247.807 135 234 135C220.193 135 209 146.193 209 160C209 173.807 220.193 185 234 185Z" fill="#82BD36"/>
<path d="M78 185C91.8071 185 103 173.807 103 160C103 146.193 91.8071 135 78 135C64.1929 135 53 146.193 53 160C53 173.807 64.1929 185 78 185Z" fill="#82BD36"/>
<path d="M26 185C39.8071 185 51 173.807 51 160C51 146.193 39.8071 135 26 135C12.1929 135 1 146.193 1 160C1 173.807 12.1929 185 26 185Z" fill="#82BD36"/>
<path d="M25.9001 151.2C20.5001 151.2 16.1001 155.6 16.1001 161C16.1001 166.4 20.5001 170.8 25.9001 170.8C31.3001 170.8 35.7001 166.4 35.7001 161C35.7001 155.6 31.3001 151.2 25.9001 151.2ZM25.9001 168.5C21.8001 168.5 18.4001 165.1 18.4001 161C18.4001 156.9 21.8001 153.5 25.9001 153.5C30.0001 153.5 33.4001 156.9 33.4001 161C33.4001 165.1 30.0001 168.5 25.9001 168.5Z" fill="white"/>
<path d="M27.7001 161C27.7001 162 26.9001 162.8 25.9001 162.8C24.9001 162.8 24.1001 162 24.1001 161C24.1001 160.3 24.5001 159.7 25.1001 159.4L25.3001 155.3C25.3001 155.1 25.5001 154.7 25.9001 154.7C26.3001 154.7 26.5001 155.1 26.5001 155.3L26.7001 159.4C27.3001 159.7 27.7001 160.3 27.7001 161Z" fill="white"/>
<path d="M29.8999 146V148C29.8999 148.5 29.3999 149 28.8999 149H27.8999C27.8999 149.5 27.3999 150 26.8999 150H24.8999C24.2999 150 23.8999 149.5 23.8999 149H22.8999C22.2999 149 21.8999 148.5 21.8999 148V146C21.8999 145.5 22.2999 145 22.8999 145H28.8999C29.3999 145 29.8999 145.5 29.8999 146Z" fill="white"/>
<path d="M33.4677 149.845L31.9116 151.401L34.3154 153.806L35.8715 152.25L33.4677 149.845Z" fill="white"/>
<path d="M246.4 157.4C246.3 157.4 246.2 157.3 246.2 157.5C246.2 157.9 246.2 158.4 245.8 158.6C245.5 158.8 245.2 158.7 244.9 158.5C244.6 158.3 244.4 157.8 244.2 157.5C244.4 157.9 244.2 158.7 243.8 159.1C243.2 159.7 242.8 158.4 242.7 158C242.6 158.3 242.3 158.4 242.1 158.1C241.9 157.9 241.8 157.4 241.9 157.1C241.6 157.3 241.4 157.5 241.1 157.1C240.9 156.8 241.1 156.5 240.9 156.3C240.9 156.4 240.9 156.4 240.8 156.5C240.6 156.5 240.4 156.3 240.3 156.2C239.6 155.7 238.3 156.2 237.6 156.6C237.5 156.6 237.5 156.6 237.5 156.7C239.5 158.9 240.1 161.7 239.4 162.5C239.4 162.5 238.7 163 237.6 163.7C237.4 163.8 236.5 162 235.3 162C236.2 162.9 236.4 164.3 236.3 164.6C235.7 165.5 232.8 167.4 232.1 167.3C231.4 167.2 231.4 166 230 165.5C230.5 166.4 231.3 167.8 230.9 168C226.7 170.5 222.1 173 221.4 172.3C220.6 171.5 226.3 161.2 226.8 161.1C227.3 161 229 161.2 230.6 162.4C229.6 160.3 228.1 159.9 227.8 159.4C227.5 158.9 231.2 154.1 231.3 154.1C232.1 153.3 234.8 153.9 237 156L237.1 155.9C237.5 155.2 238 153.9 237.5 153.2C237.4 153 237.2 152.9 237.2 152.7C237.3 152.7 237.3 152.6 237.4 152.6C237.1 152.4 236.8 152.6 236.5 152.4C236.2 152.2 236.3 151.9 236.5 151.6C236.2 151.7 235.8 151.6 235.5 151.4C235.2 151.2 235.2 150.8 235.6 150.7C235.2 150.6 233.9 150.2 234.5 149.6C234.8 149.2 235.6 149.1 236.1 149.2C235.9 149 235.4 148.8 235.1 148.5C234.9 148.2 234.9 147.9 235 147.6C235.3 147.2 235.7 147.2 236.1 147.2C236.4 147.2 236.2 147.1 236.2 147C236.3 146.8 236.6 147.1 236.8 147.2C236.8 147.2 236.9 147.2 236.9 147.3C237.4 147.7 237 147.1 237.2 147C237.4 146.8 237.8 147.4 238 147.5C238.2 147.7 238.4 148.1 238.4 148.4C238.4 148.3 238.4 148 238.6 148C238.8 148 239 148.4 239 148.5C239.1 148.8 239.3 149.1 239.4 149.4C239.5 149.7 239.4 149.9 239.5 150.2C239.6 150.1 239.6 150 239.7 149.9C240.1 150.2 239.9 151.5 239.6 151.8C239.8 151.7 239.9 151.6 239.9 151.9C239.9 152.1 239.8 152.3 239.8 152.5C239.6 153.1 239.4 153.7 239.1 154.2C240.7 152.1 240.6 151 241.1 150.4C241.3 150.1 241.7 150.1 241.9 150.3C241.8 149.9 241.9 149.5 242 149.2C242.2 148.8 242.8 148.6 243 149C243 148.6 243 148.2 243.3 147.9C243.4 147.8 243.7 147.6 243.9 147.7C244.1 147.8 244.3 148 244.2 148.2C244.7 147.7 245.2 147.4 245.8 147.9C246.2 148.3 246.2 149 245.8 149.4C246 149.3 246.2 149.6 246.2 149.8C246.2 150 246.1 150.2 246 150.3C245.7 150.6 245.1 150.7 244.7 150.8C244.9 150.8 245.2 150.8 245.3 151C245.4 151.2 245.3 151.5 245.1 151.6C244.9 151.9 244.4 151.9 244.1 152C243.8 152 243.6 152.1 243.3 152.1C243.5 152.2 243.7 152.3 243.5 152.5C242.8 153.1 242.2 152.5 239.7 154.4C240.2 154.2 240.7 153.9 241.3 153.7C241.5 153.6 241.7 153.5 241.9 153.6C242.2 153.6 242.1 153.8 242 153.9C242.3 153.6 243.6 153.4 243.9 153.8C243.8 153.9 243.7 153.9 243.6 154C243.8 154 244.1 154 244.4 154.1C244.7 154.2 245 154.3 245.3 154.5C245.4 154.6 245.8 154.8 245.8 154.9C245.8 155.1 245.5 155.1 245.4 155.1C245.7 155.2 246.1 155.3 246.3 155.5C246.4 155.6 247 156 246.8 156.3C246.7 156.5 246.1 156.1 246.5 156.6C246.5 156.6 246.5 156.6 246.6 156.7C246.3 157 246.6 157.3 246.4 157.4Z" fill="white"/>
<path d="M133.4 165V162.9L130.9 162.5C130.8 161.9 130.5 161.3 130.2 160.8L131.7 158.7L130.2 157.2L128.1 158.7C127.6 158.4 127 158.1 126.4 158L126 155.5H123.9L123.5 158C122.9 158.1 122.3 158.4 121.8 158.7L119.7 157.2L118.2 158.7L119.7 160.8C119.4 161.3 119.1 161.9 119 162.5L116.5 162.9V165L119 165.4C119.2 166 119.4 166.6 119.7 167.1L118.2 169.2L119.7 170.7L121.8 169.2C122.3 169.5 122.9 169.7 123.5 169.9L123.9 172.4H126L126.4 169.9C127 169.7 127.6 169.5 128.1 169.2L130.2 170.7L131.7 169.2L130.2 167.1C130.5 166.6 130.7 166 130.9 165.4L133.4 165ZM124.9 166.9C123.3 166.9 121.9 165.6 121.9 163.9C121.9 162.2 123.2 160.9 124.9 160.9C126.5 160.9 127.9 162.2 127.9 163.9C127.9 165.6 126.5 166.9 124.9 166.9Z" fill="white"/>
<path d="M141.6 156.2L142.2 154.7L140.5 153.7C140.6 153.2 140.6 152.8 140.5 152.3L142.2 151.3L141.6 149.8L139.7 150.2C139.4 149.8 139.1 149.5 138.7 149.2L139.1 147.3L137.6 146.7L136.6 148.3C136.1 148.2 135.7 148.2 135.2 148.3L134.2 146.6L132.7 147.2L133.1 149.1C132.7 149.4 132.4 149.7 132.1 150.1L130.2 149.7L129.6 151.2L131.2 152.3C131.1 152.8 131.1 153.2 131.2 153.7L129.6 154.7L130.2 156.2L132.1 155.8C132.4 156.2 132.7 156.5 133.1 156.8L132.7 158.7L134.2 159.3L135.3 157.7C135.8 157.8 136.2 157.8 136.7 157.7L137.7 159.4L139.2 158.8L138.8 156.9C139.2 156.6 139.5 156.3 139.8 155.9L141.6 156.2ZM135.1 155C133.9 154.5 133.4 153.2 133.9 152C134.4 150.8 135.7 150.3 136.9 150.8C138.1 151.3 138.6 152.6 138.1 153.8C137.5 155 136.2 155.5 135.1 155Z" fill="white"/>
<path d="M87 156C85.7 157.7 83.5 158.3 81.8 157.2C80 156.1 79.5 153.7 80.6 151.9C81.7 150.1 86 148.6 87.9 147.6C87.9 151.7 88.2 154.5 87 156Z" fill="white"/>
<path d="M71.6001 161.2C70.3001 162.9 68.1001 163.5 66.4001 162.4C64.6001 161.3 64.1001 158.9 65.2001 157.1C66.3001 155.3 70.6001 153.8 72.5001 152.8C72.4001 156.9 72.7001 159.7 71.6001 161.2Z" fill="white"/>
<path d="M85.1001 172C83.8001 173.7 81.6001 174.3 79.9001 173.2C78.1001 172.1 77.6001 169.7 78.7001 167.9C79.8001 166.1 84.1001 164.6 86.0001 163.6C86.0001 167.7 86.3001 170.5 85.1001 172Z" fill="white"/>
<path d="M176.2 161.8C178.2 161.8 179.2 162.6 180 163.2C180.7 163.7 181.1 164 182.2 164C183.2 164 183.7 163.7 184.4 163.2C185.2 162.6 186.3 161.8 188.2 161.8C190.2 161.8 191.2 162.6 192 163.2C192.7 163.7 193.1 164 194.2 164V166.8C192.2 166.8 191.2 166 190.4 165.4C189.7 164.9 189.3 164.6 188.2 164.6C187.2 164.6 186.7 164.9 186 165.4C185.2 166 184.1 166.8 182.2 166.8C180.2 166.8 179.2 166 178.4 165.4C177.7 164.9 177.3 164.6 176.2 164.6C175.2 164.6 174.7 164.9 174 165.4C173.2 166 172.1 166.8 170.2 166.8V164C171.2 164 171.7 163.7 172.4 163.2C173.2 162.6 174.2 161.8 176.2 161.8Z" fill="white"/>
<path d="M176.2 156.6C178.2 156.6 179.2 157.4 180 158C180.7 158.5 181.1 158.8 182.2 158.8C183.2 158.8 183.7 158.5 184.4 158C185.2 157.4 186.3 156.6 188.2 156.6C190.2 156.6 191.2 157.4 192 158C192.7 158.5 193.1 158.8 194.2 158.8V161.6C192.2 161.6 191.2 160.8 190.4 160.2C189.7 159.7 189.3 159.4 188.2 159.4C187.2 159.4 186.7 159.7 186 160.2C185.2 160.8 184.1 161.6 182.2 161.6C180.2 161.6 179.2 160.8 178.4 160.2C177.7 159.7 177.3 159.4 176.2 159.4C175.2 159.4 174.7 159.7 174 160.2C173.2 160.8 172.1 161.6 170.2 161.6V158.8C171.2 158.8 171.7 158.5 172.4 158C173.2 157.4 174.2 156.6 176.2 156.6Z" fill="white"/>
<path d="M176.2 151.5C178.2 151.5 179.2 152.3 180 152.9C180.7 153.4 181.1 153.7 182.2 153.7C183.2 153.7 183.7 153.4 184.4 152.9C185.2 152.3 186.3 151.5 188.2 151.5C190.2 151.5 191.2 152.3 192 152.9C192.7 153.4 193.1 153.7 194.2 153.7V156.5C192.2 156.5 191.2 155.7 190.4 155.1C189.7 154.6 189.3 154.3 188.2 154.3C187.2 154.3 186.7 154.6 186 155.1C185.2 155.7 184.1 156.5 182.2 156.5C180.2 156.5 179.2 155.7 178.4 155.1C177.7 154.6 177.3 154.3 176.2 154.3C175.2 154.3 174.7 154.6 174 155.1C173.2 155.7 172.1 156.5 170.2 156.5V153.7C171.2 153.7 171.7 153.4 172.4 152.9C173.2 152.3 174.2 151.5 176.2 151.5Z" fill="white"/>
<path d="M35.2002 186.8C35.2002 186.8 11.9002 193.5 5.20024 207C-1.49976 220.5 1.90024 240.6 1.90024 240.6C1.90024 240.6 25.2002 233.9 31.9002 220.4C38.5002 207 35.2002 186.8 35.2002 186.8Z" fill="#82BD36"/>
<path d="M1 251.2C1 251 1.1 250.8 1.2 250.7L8.5 243.2C8.8 242.9 9.2 242.9 9.5 243.2L16.8 250.7C17.1 251 17.1 251.5 16.8 251.8C16.5 252.1 16.1 252.1 15.8 251.8L9 244.8L2.2 251.8C1.9 252.1 1.5 252.1 1.2 251.8C1.1 251.6 1 251.4 1 251.2Z" fill="#333333"/>
<path d="M35.0001 243.8C35.0001 244 34.9001 244.2 34.8001 244.3L27.5001 251.8C27.2001 252.1 26.8001 252.1 26.5001 251.8L19.2001 244.3C18.9001 244 18.9001 243.5 19.2001 243.2C19.5001 242.9 19.9001 242.9 20.2001 243.2L27.0001 250.2L33.8001 243.2C34.1001 242.9 34.5001 242.9 34.8001 243.2C34.9001 243.4 35.0001 243.6 35.0001 243.8Z" fill="#333333"/>
<path d="M3 269.5C2.2 269.5 1.5 268.8 1.5 268V256C1.5 255.2 2.2 254.5 3 254.5H15C15.8 254.5 16.5 255.2 16.5 256V268C16.5 268.8 15.8 269.5 15 269.5H3Z" fill="white"/>
<path d="M15 255C15.6 255 16 255.4 16 256V268C16 268.6 15.6 269 15 269H3C2.4 269 2 268.6 2 268V256C2 255.4 2.4 255 3 255H15ZM15 254H3C1.9 254 1 254.9 1 256V268C1 269.1 1.9 270 3 270H15C16.1 270 17 269.1 17 268V256C17 254.9 16.1 254 15 254Z" fill="#A0A0A0"/>
<path d="M21 269.5C20.2 269.5 19.5 268.8 19.5 268V256C19.5 255.2 20.2 254.5 21 254.5H33C33.8 254.5 34.5 255.2 34.5 256V268C34.5 268.8 33.8 269.5 33 269.5H21Z" fill="white"/>
<path d="M33 255C33.6 255 34 255.4 34 256V268C34 268.6 33.6 269 33 269H21C20.4 269 20 268.6 20 268V256C20 255.4 20.4 255 21 255H33ZM33 254H21C19.9 254 19 254.9 19 256V268C19 269.1 19.9 270 21 270H33C34.1 270 35 269.1 35 268V256C35 254.9 34.1 254 33 254Z" fill="#A0A0A0"/>
<path d="M8.0998 266.5L3.2998 261.7L4.6998 260.3L7.89981 263.5L13.1998 257.3L14.7998 258.7L8.0998 266.5Z" fill="#82BD36"/>
<path d="M52 187C44.3 187 38 193.3 38 201C38 208.7 44.3 215 52 215C59.7 215 66 208.7 66 201C66 193.3 59.7 187 52 187ZM60.2 209C59.7 207.5 57 206 54.5 205.2C54.4 205.2 53.6 204.8 54.1 203.3C55.4 202 56.3 199.9 56.3 197.8C56.3 194.6 54.2 192.9 51.7 192.9C49.2 192.9 47.1 194.6 47.1 197.8C47.1 199.9 48.1 202 49.3 203.3C49.8 204.6 48.9 205.1 48.7 205.2C46.5 206 44.1 207.3 43.3 208.7C41.4 206.7 40.3 203.9 40.3 200.9C40.3 194.6 45.5 189.4 51.8 189.4C58.1 189.4 63.3 194.6 63.3 200.9C63.5 204.1 62.2 207 60.2 209Z" fill="#5B3C2A"/>
<path d="M63 255C66.9 255 70 258.1 70 262C70 265.9 66.9 269 63 269C59.1 269 56 265.9 56 262C56 258.1 59.1 255 63 255ZM63 254C58.6 254 55 257.6 55 262C55 266.4 58.6 270 63 270C67.4 270 71 266.4 71 262C71 257.6 67.4 254 63 254Z" fill="#5B3C2A"/>
<path d="M45 255C48.9 255 52 258.1 52 262C52 265.9 48.9 269 45 269C41.1 269 38 265.9 38 262C38 258.1 41.1 255 45 255ZM45 254C40.6 254 37 257.6 37 262C37 266.4 40.6 270 45 270C49.4 270 53 266.4 53 262C53 257.6 49.4 254 45 254Z" fill="#5B3C2A"/>
<path d="M45 266C47.2091 266 49 264.209 49 262C49 259.791 47.2091 258 45 258C42.7909 258 41 259.791 41 262C41 264.209 42.7909 266 45 266Z" fill="#5B3C2A"/>
<path d="M84 192.9C84 192.8 83.9 192.7 83.8 192.6L78.6 187.2C78.5 187.1 78.4 187 78.3 187H70C68.9 187 68 187.9 68 189V205C68 206.1 68.9 207 70 207H82C83.1 207 84 206.1 84 205V192.9ZM82.1 204.7C82.1 204.9 81.9 205.1 81.7 205.1H70.3C70.1 205.1 69.9 204.9 69.9 204.7V189.4C69.9 189.2 70.1 189 70.3 189L78.1 189.1V192.2C78.1 192.6 78.5 193 78.9 193H82.2L82.1 204.7ZM81 196.9H71V195H81V196.9ZM81 199.9H71V198H81V199.9ZM81 202.9H71V201H81V202.9Z" fill="#82BD36"/>
<path d="M241 1.2002H245.7C248.7 1.2002 250.2 2.8002 250.2 5.8002V15.2002C250.2 18.2002 248.7 19.8002 245.7 19.8002H241V1.2002ZM244 3.9002V17.2002H245.7C246.7 17.2002 247.2 16.7002 247.2 15.4002V5.7002C247.2 4.4002 246.6 3.9002 245.7 3.9002H244Z" fill="#394449"/>
<path d="M253.3 1.2002H256.3V19.8002H253.3V1.2002Z" fill="#394449"/>
<path d="M266 19.8002C265.8 19.3002 265.7 19.0002 265.7 17.5002V14.6002C265.7 12.9002 265.1 12.2002 263.7 12.2002H262.7V19.8002H259.7V1.2002H264.2C267.3 1.2002 268.6 2.6002 268.6 5.5002V7.0002C268.6 8.9002 268 10.2002 266.6 10.8002C268.1 11.4002 268.6 12.8002 268.6 14.8002V17.7002C268.6 18.6002 268.6 19.3002 268.9 20.0002H266V19.8002ZM262.7 3.9002V9.6002H263.9C265 9.6002 265.7 9.1002 265.7 7.6002V5.8002C265.7 4.5002 265.2 3.9002 264.2 3.9002H262.7Z" fill="#394449"/>
<path d="M274.9 9.0002H279V11.7002H274.9V17.1002H280V19.8002H271.8V1.2002H280V3.9002H274.8V9.0002H274.9Z" fill="#394449"/>
<path d="M291.1 12.9V15.4C291.1 18.4 289.6 20.1 286.6 20.1C283.7 20.1 282.1 18.4 282.1 15.4V5.7C282.1 2.7 283.6 1 286.6 1C289.5 1 291.1 2.7 291.1 5.7V7.5H288.3V5.5C288.3 4.2 287.7 3.7 286.7 3.7C285.7 3.7 285.1 4.2 285.1 5.5V15.5C285.1 16.8 285.7 17.3 286.7 17.3C287.7 17.3 288.3 16.8 288.3 15.5V12.8L291.1 12.9Z" fill="#394449"/>
<path d="M292.7 1.2002H302V3.9002H298.9V19.8002H295.9V3.9002H292.8L292.7 1.2002Z" fill="#394449"/>
<path d="M304 1.2002H307V17.1002H311.9V19.8002H304V1.2002Z" fill="white"/>
<path d="M313.7 1.2002H316.7V19.8002H313.7V1.2002Z" fill="white"/>
<path d="M322.8 6.3002V19.8002H320.1V1.2002H323.9L327 12.3002V1.2002H329.7V19.8002H326.6L322.8 6.3002Z" fill="white"/>
<path d="M335.8 9.0002H339.9V11.7002H335.8V17.1002H341V19.8002H332.8V1.2002H341V3.9002H335.8V9.0002Z" fill="white"/>
<path d="M259.7 27.8998C260 27.8998 260.4 27.7998 261 27.7998C261.7 27.7998 262.3 27.9998 262.6 28.2998C262.9 28.6998 263.1 29.1998 263.1 29.7998C263.1 29.9998 263.1 30.1998 263 30.3998C263 30.5998 262.9 30.7998 262.8 30.9998C262.7 31.1998 262.6 31.2998 262.4 31.4998C262.2 31.5998 262 31.6998 261.8 31.7998C261.5 31.8998 261.3 31.8998 260.9 31.8998C260.4 31.8998 260 31.8998 259.7 31.7998V27.8998ZM261 28.5998C260.8 28.5998 260.6 28.5998 260.5 28.5998V31.1998C260.6 31.1998 260.7 31.1998 260.9 31.1998C261.1 31.1998 261.3 31.1998 261.5 31.0998C261.7 30.9998 261.8 30.8998 261.9 30.7998C262 30.6998 262 30.4998 262.1 30.3998C262.1 30.2998 262.2 30.0998 262.2 29.8998C262.2 29.6998 262.2 29.5998 262.1 29.4998C262.1 29.3998 262 29.1998 261.9 29.0998C261.8 28.9998 261.7 28.8998 261.5 28.7998C261.5 28.5998 261.3 28.5998 261 28.5998Z" fill="#394449"/>
<path d="M266.1 27.8999H268.7V28.5999H267V29.4999H268.6V30.1999H267V31.0999H268.8V31.7999H266.2L266.1 27.8999C266.1 27.8999 266.2 27.8999 266.1 27.8999Z" fill="#394449"/>
<path d="M273 30.1999L273.1 30.8999L273.2 30.1999L274 27.8999H275L273.4 31.8999H272.8L271.2 27.8999H272.2L273 30.1999Z" fill="#394449"/>
<path d="M277.7 27.8999H280.3V28.5999H278.6V29.4999H280.2V30.1999H278.6V31.0999H280.4V31.7999H277.8L277.7 27.8999Z" fill="#394449"/>
<path d="M286 31.8999H283.3V27.8999H284.1V31.0999H286V31.8999Z" fill="#394449"/>
<path d="M288 29.8999C288 29.1999 288.2 28.6999 288.5 28.3999C288.8 27.9999 289.3 27.8999 289.8 27.8999C290.4 27.8999 290.9 28.0999 291.2 28.4999C291.5 28.8999 291.7 29.3999 291.7 29.9999C291.7 30.6999 291.5 31.1999 291.2 31.4999C290.9 31.8999 290.4 31.9999 289.8 31.9999C289.2 31.9999 288.7 31.7999 288.4 31.3999C288.1 31.0999 288 30.5999 288 29.8999ZM288.9 29.8999C288.9 30.2999 289 30.5999 289.1 30.8999C289.3 31.0999 289.5 31.2999 289.8 31.2999C290.4 31.2999 290.7 30.8999 290.7 29.9999C290.7 29.5999 290.6 29.2999 290.5 28.9999C290.3 28.7999 290.1 28.5999 289.8 28.5999C289.2 28.5999 288.9 28.9999 288.9 29.8999Z" fill="#394449"/>
<path d="M294.6 27.9999C295 27.8999 295.4 27.8999 295.8 27.8999C297 27.8999 297.6 28.2999 297.6 29.1999C297.6 29.3999 297.6 29.6999 297.5 29.7999C297.4 29.9999 297.3 30.0999 297.1 30.1999C296.9 30.2999 296.8 30.3999 296.6 30.3999C296.4 30.4999 296.2 30.4999 296 30.4999C295.8 30.4999 295.6 30.4999 295.5 30.4999V31.7999H294.7L294.6 27.9999ZM295.4 28.5999V29.7999C295.5 29.7999 295.6 29.7999 295.8 29.7999C295.9 29.7999 296 29.7999 296.1 29.7999C296.2 29.7999 296.3 29.7999 296.4 29.6999C296.5 29.6999 296.6 29.5999 296.6 29.4999C296.6 29.3999 296.7 29.2999 296.7 29.1999C296.7 28.7999 296.4 28.5999 295.8 28.5999C295.7 28.5999 295.5 28.5999 295.4 28.5999Z" fill="#394449"/>
<path d="M303.8 29.8999L303.9 29.0999L303.6 29.6999L302.7 31.1999H302.4L301.4 29.6999L301.1 29.0999L301.2 29.8999V31.8999H300.4V27.8999H301.2L302.3 29.6999L302.5 30.0999L302.7 29.6999L303.8 27.8999H304.6V31.8999H303.8V29.8999Z" fill="#394449"/>
<path d="M307.7 27.8999H310.3V28.5999H308.6V29.4999H310.2V30.1999H308.6V31.0999H310.4V31.7999H307.8L307.7 27.8999Z" fill="#394449"/>
<path d="M314.4 29.7999L314.1 29.1999L314.2 29.7999V31.8999H313.4V27.8999H314L315.6 29.9999L315.9 30.5999L315.8 29.9999V27.8999H316.6V31.8999H316L314.4 29.7999Z" fill="#394449"/>
<path d="M322.8 28.7H321.5V31.9H320.7V28.7H319.4V28H322.8V28.7Z" fill="#394449"/>
<path d="M256 29H241.1V30H256V29Z" fill="#394449"/>
<path d="M340.9 29H326V30H340.9V29Z" fill="#394449"/>
<path d="M89.2839 187.025L86.0312 190.277L102.719 206.965L105.971 203.712L89.2839 187.025Z" fill="#AD9D94"/>
<path d="M102.719 187.025L86.0312 203.712L89.2839 206.965L105.971 190.278L102.719 187.025Z" fill="#AD9D94"/>
<path d="M389 31C397.284 31 404 24.2843 404 16C404 7.71573 397.284 1 389 1C380.716 1 374 7.71573 374 16C374 24.2843 380.716 31 389 31Z" fill="white"/>
<path d="M517 31C525.284 31 532 24.2843 532 16C532 7.71573 525.284 1 517 1C508.716 1 502 7.71573 502 16C502 24.2843 508.716 31 517 31Z" fill="white"/>
<path d="M517 9.3002C518.1 9.3002 518.9 10.2002 518.9 11.2002C518.9 12.3002 518 13.1002 517 13.1002C515.9 13.1002 515.1 12.2002 515.1 11.2002C515.1 10.2002 515.9 9.3002 517 9.3002ZM517 15.9002C519.6 15.9002 521.6 13.8002 521.6 11.3002C521.6 8.7002 519.5 6.7002 517 6.7002C514.4 6.7002 512.4 8.8002 512.4 11.3002C512.4 13.8002 514.4 15.9002 517 15.9002Z" fill="#80B03E"/>
<path d="M518.9 19.6999C519.8 19.4999 520.8 19.0999 521.6 18.5999C522.2 18.1999 522.4 17.3999 522 16.6999C521.6 16.0999 520.8 15.8999 520.1 16.2999C518.2 17.4999 515.7 17.4999 513.8 16.2999C513.2 15.8999 512.3 16.0999 511.9 16.6999C511.5 17.2999 511.7 18.1999 512.3 18.5999C513.1 19.0999 514.1 19.4999 515 19.6999L512.4 22.2999C511.9 22.7999 511.9 23.6999 512.4 24.1999C512.7 24.4999 513 24.5999 513.4 24.5999C513.7 24.5999 514.1 24.4999 514.4 24.1999L517 21.5999L519.6 24.1999C520.1 24.6999 521 24.6999 521.5 24.1999C522 23.6999 522 22.7999 521.5 22.2999L518.9 19.6999Z" fill="#80B03E"/>
<path d="M485 31C493.284 31 500 24.2843 500 16C500 7.71573 493.284 1 485 1C476.716 1 470 7.71573 470 16C470 24.2843 476.716 31 485 31Z" fill="white"/>
<path d="M494 20.2002C494 20.2002 494 20.1002 493.9 20.1002C493.6 19.5002 493 18.8002 492.1 18.0002C491.7 17.6002 491.4 17.4002 491.3 17.2002C491.1 16.9002 491.1 16.7002 491.2 16.4002C491.3 16.2002 491.6 15.8002 492.1 15.2002C492.4 14.9002 492.6 14.6002 492.7 14.4002C493.8 12.9002 494.3 12.0002 494.1 11.6002L494 11.5002C494 11.4002 493.9 11.4002 493.7 11.3002C493.5 11.3002 493.3 11.2002 493.1 11.3002H490.4C490.4 11.3002 490.3 11.3002 490.2 11.3002C490.1 11.3002 490.1 11.3002 490.1 11.3002L490 11.4002C490 11.4002 489.9 11.5002 489.9 11.6002C489.6 12.4002 489.3 13.1002 488.9 13.7002C488.7 14.1002 488.5 14.4002 488.3 14.7002C488.1 15.0002 487.9 15.2002 487.8 15.3002C487.7 15.4002 487.5 15.5002 487.4 15.6002C487.3 15.7002 487.2 15.7002 487.2 15.7002C487.1 15.7002 487.1 15.7002 487 15.7002C486.9 15.6002 486.8 15.6002 486.8 15.5002C486.7 15.4002 486.7 15.3002 486.7 15.1002C486.7 15.0002 486.7 14.8002 486.7 14.7002C486.7 14.6002 486.7 14.4002 486.7 14.2002C486.7 14.0002 486.7 13.9002 486.7 13.8002C486.7 13.6002 486.7 13.3002 486.7 13.0002C486.7 12.7002 486.7 12.5002 486.7 12.3002C486.7 12.1002 486.7 12.0002 486.7 11.8002C486.7 11.6002 486.7 11.5002 486.7 11.4002C486.7 11.3002 486.6 11.2002 486.6 11.1002C486.6 11.0002 486.5 10.9002 486.4 10.9002C486.3 10.8002 486.2 10.8002 486.1 10.8002C485.8 10.7002 485.3 10.7002 484.8 10.7002C483.6 10.7002 482.9 10.8002 482.5 10.9002C482.4 11.0002 482.2 11.1002 482.1 11.2002C482 11.3002 482 11.4002 482.1 11.4002C482.5 11.5002 482.7 11.6002 482.9 11.8002L483 11.9002C483 12.0002 483.1 12.1002 483.1 12.3002C483.1 12.5002 483.2 12.7002 483.2 13.0002C483.2 13.5002 483.2 13.9002 483.2 14.2002C483.2 14.5002 483.1 14.8002 483.1 15.0002C483.1 15.2002 483 15.3002 483 15.4002C482.9 15.5002 482.9 15.6002 482.9 15.6002C482.8 15.6002 482.7 15.6002 482.6 15.6002C482.5 15.6002 482.4 15.6002 482.3 15.5002C482.2 15.4002 482 15.3002 481.9 15.1002C481.8 14.9002 481.6 14.7002 481.4 14.5002C481.2 14.2002 481.1 13.9002 480.9 13.5002L480.7 13.2002C480.6 13.0002 480.5 12.8002 480.3 12.4002C480.1 12.1002 480 11.7002 479.9 11.4002C479.8 11.3002 479.8 11.2002 479.7 11.1002C479.7 11.1002 479.6 11.0002 479.5 11.0002C479.4 11.0002 479.4 11.0002 479.3 10.9002H476.7C476.4 10.9002 476.3 11.0002 476.2 11.1002V11.2002C476.2 11.2002 476.2 11.3002 476.2 11.4002C476.2 11.5002 476.2 11.6002 476.3 11.7002C476.7 12.6002 477.1 13.4002 477.5 14.3002C477.9 15.1002 478.3 15.8002 478.7 16.3002C479 16.8002 479.4 17.3002 479.7 17.7002C480 18.1002 480.3 18.4002 480.4 18.6002C480.5 18.7002 480.6 18.8002 480.7 18.9002L480.9 19.1002C481.1 19.3002 481.3 19.4002 481.6 19.6002C481.9 19.8002 482.2 20.0002 482.6 20.2002C483 20.4002 483.4 20.6002 483.8 20.7002C484.3 20.8002 484.7 20.9002 485.2 20.9002H486.3C486.5 20.9002 486.7 20.8002 486.8 20.7002C486.8 20.7002 486.8 20.6002 486.9 20.5002C486.9 20.4002 486.9 20.3002 486.9 20.2002C486.9 19.9002 486.9 19.7002 487 19.5002C487 19.3002 487.1 19.1002 487.2 19.0002C487.3 18.9002 487.3 18.8002 487.4 18.7002C487.5 18.6002 487.5 18.6002 487.6 18.6002H487.7C487.9 18.5002 488 18.6002 488.2 18.7002C488.4 18.8002 488.6 19.0002 488.8 19.2002C489 19.4002 489.2 19.7002 489.4 19.9002C489.7 20.2002 489.9 20.4002 490.1 20.5002L490.3 20.6002C490.4 20.7002 490.6 20.7002 490.8 20.8002C491 20.9002 491.2 20.9002 491.3 20.8002H493.7C493.9 20.8002 494.1 20.8002 494.3 20.7002C494.4 20.6002 494.5 20.5002 494.5 20.4002C494.5 20.3002 494.5 20.2002 494.5 20.1002C494 20.3002 494 20.2002 494 20.2002Z" fill="#80B03E"/>
<path d="M357 31C365.284 31 372 24.2843 372 16C372 7.71573 365.284 1 357 1C348.716 1 342 7.71573 342 16C342 24.2843 348.716 31 357 31Z" fill="white"/>
<path d="M421 31C429.284 31 436 24.2843 436 16C436 7.71573 429.284 1 421 1C412.716 1 406 7.71573 406 16C406 24.2843 412.716 31 421 31Z" fill="white"/>
<path d="M426.7 13.1001C426.7 13.2001 426.7 13.4001 426.7 13.5001C426.7 17.4001 423.7 21.9001 418.3 21.9001C416.6 21.9001 415.1 21.4001 413.8 20.6001C414 20.6001 414.3 20.6001 414.5 20.6001C415.9 20.6001 417.2 20.1001 418.2 19.3001C416.9 19.3001 415.8 18.4001 415.4 17.2001C415.6 17.2001 415.8 17.3001 416 17.3001C416.3 17.3001 416.5 17.3001 416.8 17.2001C415.4 16.9001 414.4 15.7001 414.4 14.3001C414.8 14.5001 415.3 14.7001 415.7 14.7001C414.9 14.2001 414.4 13.3001 414.4 12.2001C414.4 11.7001 414.5 11.2001 414.8 10.7001C416.3 12.5001 418.4 13.7001 420.9 13.8001C420.9 13.6001 420.8 13.4001 420.8 13.1001C420.8 11.5001 422.1 10.1001 423.8 10.1001C424.6 10.1001 425.4 10.5001 426 11.0001C426.7 10.9001 427.3 10.6001 427.9 10.3001C427.7 11.0001 427.2 11.6001 426.6 11.9001C427.2 11.8001 427.8 11.7001 428.3 11.4001C427.8 12.1001 427.3 12.6001 426.7 13.1001Z" fill="#80B03E"/>
<path d="M453 31C461.284 31 468 24.2843 468 16C468 7.71573 461.284 1 453 1C444.716 1 438 7.71573 438 16C438 24.2843 444.716 31 453 31Z" fill="white"/>
<path d="M444 14.6998C444.1 11.5998 447 8.89976 450.1 8.99976C451.6 8.89976 453 9.59976 454.2 10.4998C453.7 11.0998 453.2 11.5998 452.6 12.0998C451.2 11.1998 449.2 10.8998 447.8 11.9998C445.8 13.2998 445.7 16.4998 447.6 17.9998C449.5 19.6998 453 18.7998 453.5 16.2998C452.3 16.2998 451.2 16.2998 450 16.2998C450 15.5998 450 14.8998 450 14.2998C451.9 14.2998 455.8 14.2998 455.8 14.2998C455.9 15.8998 455.7 17.5998 454.7 18.8998C453.2 20.9998 450.1 21.5998 447.7 20.6998C445.5 19.6998 443.8 17.1998 444 14.6998Z" fill="#80B03E"/>
<path d="M459 12H461C461 12.7 461 13.3 461 14C461.7 14 462.3 14 463 14V16C462.3 16 461.7 16 461 16C461 16.7 461 17.3 461 18H459C459 17.3 459 16.7 459 16C458.3 16 457.7 16 457 16V14C457.7 14 458.3 14 459 14C459 13.3 459 12.7 459 12Z" fill="#80B03E"/>
<path d="M383.7 8.8999C382.7 8.8999 382 9.4999 382 10.3999C382 11.2999 382.7 11.8999 383.7 11.8999C384.8 11.8999 385.4 11.2999 385.4 10.3999C385.3 9.4999 384.7 8.8999 383.7 8.8999ZM382.3 22.8999H385V13.1999H382.3V22.8999ZM392.7 12.8999C391.1 12.8999 390 13.6999 389.6 14.2999L389.4 13.2999H387V22.9999H389.7V17.1999C389.7 16.8999 389.7 16.5999 389.8 16.4999C390 15.9999 390.7 15.3999 391.5 15.3999C392.6 15.3999 393.3 16.1999 393.3 17.4999V23.0999H396V17.0999C396 14.0999 394.6 12.8999 392.7 12.8999Z" fill="#80B03E"/>
<path d="M360.6 11.3998H358.3C358 11.3998 357.7 11.7998 357.7 12.1998V13.7998H360.5V16.0998H357.7V23.0998H355V16.0998H352.6V13.7998H355V12.3998C355 10.3998 356.4 8.7998 358.2 8.7998H360.5V11.3998H360.6Z" fill="#80B03E"/>
<path d="M81 267.2L76.1 269.8L77 264.3L73 260.4L78.5 259.6L81 254.6L83.5 259.6L89 260.4L85 264.3L85.9 269.8L81 267.2Z" fill="white"/>
<path opacity="0.4" d="M99 267.2L94.1 269.8L95 264.3L91 260.4L96.5 259.6L99 254.6L101.5 259.6L107 260.4L103 264.3L103.9 269.8L99 267.2Z" fill="white"/>
<path d="M110 255C110.2 255 110.5 255.1 110.6 255.3L116.8 261.4C117.2 261.7 117.2 262.3 116.8 262.6L110.6 268.7C110.2 269 109.7 269 109.3 268.7C108.9 268.4 108.9 267.8 109.3 267.5L114.8 262L109.3 256.5C108.9 256.2 108.9 255.6 109.3 255.3C109.5 255.1 109.8 255 110 255Z" fill="#82BD36"/>
<path d="M596.5 6.6998H593.9C593.6 6.6998 593.3 7.0998 593.3 7.5998V9.4998H596.5V12.0998H593.3V20.0998H590.3V12.0998H587.5V9.4998H590.3V7.89981C590.3 5.69981 591.9 3.7998 594 3.7998H596.6V6.6998H596.5Z" fill="white"/>
<path d="M616 5.7001C617.1 5.7001 617.9 6.6001 617.9 7.6001C617.9 8.7001 617 9.5001 616 9.5001C614.9 9.5001 614.1 8.6001 614.1 7.6001C614.1 6.6001 614.9 5.7001 616 5.7001ZM616 12.3001C618.6 12.3001 620.6 10.2001 620.6 7.7001C620.6 5.1001 618.5 3.1001 616 3.1001C613.4 3.1001 611.4 5.2001 611.4 7.7001C611.4 10.2001 613.4 12.3001 616 12.3001Z" fill="white"/>
<path d="M617.9 16.0998C618.8 15.8998 619.8 15.4998 620.6 14.9998C621.2 14.5998 621.4 13.7998 621 13.0998C620.6 12.4998 619.8 12.2998 619.1 12.6998C617.2 13.8998 614.7 13.8998 612.8 12.6998C612.2 12.2998 611.3 12.4998 610.9 13.0998C610.5 13.6998 610.7 14.5998 611.3 14.9998C612.1 15.4998 613.1 15.8998 614 16.0998L611.4 18.6998C610.9 19.1998 610.9 20.0998 611.4 20.5998C611.7 20.8998 612 20.9998 612.4 20.9998C612.7 20.9998 613.1 20.8998 613.4 20.5998L616 17.9998L618.6 20.5998C619.1 21.0998 620 21.0998 620.5 20.5998C621 20.0998 621 19.1998 620.5 18.6998L617.9 16.0998Z" fill="white"/>
<path d="M575.3 15.8998C575.3 15.8998 575.3 15.7998 575.2 15.7998C574.9 15.2998 574.4 14.6998 573.7 13.9998C573.4 13.6998 573.1 13.4998 573 13.2998C572.8 13.0998 572.8 12.8998 572.9 12.5998C573 12.3998 573.2 12.0998 573.6 11.4998C573.8 11.1998 574 10.9998 574.1 10.7998C575 9.5998 575.4 8.7998 575.3 8.3998V8.2998C575.3 8.2998 575.2 8.1998 575.1 8.1998C575 8.1998 574.8 8.1998 574.6 8.1998H572.3C572.3 8.1998 572.2 8.1998 572.1 8.1998C572 8.1998 572 8.1998 572 8.1998C572 8.1998 571.9 8.1998 571.9 8.2998L571.8 8.3998C571.5 8.9998 571.3 9.5998 570.9 10.1998C570.7 10.4998 570.5 10.7998 570.4 11.0998C570.2 11.2998 570.1 11.4998 570 11.5998C569.9 11.6998 569.8 11.7998 569.7 11.8998C569.6 11.9998 569.5 11.9998 569.5 11.9998H569.4C569.3 11.9998 569.3 11.8998 569.2 11.7998C569.2 11.6998 569.1 11.5998 569.1 11.4998C569.1 11.3998 569.1 11.2998 569.1 11.1998C569.1 11.0998 569.1 10.9998 569.1 10.7998C569.1 10.5998 569.1 10.4998 569.1 10.4998C569.1 10.2998 569.1 10.0998 569.1 9.7998C569.1 9.5998 569.1 9.3998 569.1 9.1998C569.1 9.0998 569.1 8.8998 569.1 8.7998C569.1 8.5998 569.1 8.4998 569.1 8.3998C569.1 8.2998 569.1 8.1998 569 8.0998C569 7.9998 568.9 7.9998 568.8 7.8998C568.7 7.8998 568.6 7.7998 568.5 7.7998C568.2 7.9998 567.9 7.9998 567.4 7.9998C566.4 7.9998 565.8 8.0998 565.5 8.1998C565.4 8.2998 565.3 8.2998 565.2 8.3998C565.1 8.4998 565.1 8.5998 565.2 8.5998C565.5 8.5998 565.7 8.7998 565.9 8.8998V8.9998C565.9 9.0998 566 9.1998 566 9.3998C566 9.5998 566.1 9.7998 566.1 9.9998C566.1 10.3998 566.1 10.6998 566.1 10.9998C566.1 11.2998 566 11.4998 566 11.5998C566 11.7998 565.9 11.8998 565.9 11.9998C565.9 12.0998 565.8 12.1998 565.8 12.1998C565.7 12.1998 565.7 12.1998 565.6 12.1998C565.5 12.1998 565.4 12.1998 565.3 12.0998C565.2 11.9998 565.1 11.8998 565 11.7998C564.9 11.6998 564.8 11.4998 564.6 11.2998C564.5 11.0998 564.3 10.7998 564.2 10.4998L564.1 10.2998C564 10.1998 563.9 9.8998 563.8 9.5998C563.7 9.2998 563.5 8.9998 563.4 8.7998C563.4 8.6998 563.3 8.5998 563.2 8.4998C563.2 8.4998 563.1 8.4998 563.1 8.3998C563 8.3998 563 8.3998 562.9 8.2998H560.7C560.5 8.2998 560.3 8.3998 560.2 8.4998V8.5998C560.2 8.6998 560.2 8.6998 560.2 8.7998C560.5 9.5998 560.9 10.2998 561.2 10.9998C561.6 11.6998 561.9 12.2998 562.2 12.6998C562.5 13.0998 562.8 13.4998 563.1 13.8998C563.4 14.2998 563.6 14.4998 563.7 14.5998C563.8 14.6998 563.9 14.7998 563.9 14.7998L564.1 14.9998C564.2 15.0998 564.4 15.2998 564.7 15.4998C564.9 15.6998 565.2 15.8998 565.5 15.9998C565.8 16.1998 566.2 16.2998 566.6 16.3998C567 16.4998 567.4 16.5998 567.8 16.4998H568.7C568.9 16.4998 569 16.3998 569.1 16.2998C569.1 16.2998 569.1 16.1998 569.2 16.1998C569.2 16.0998 569.2 16.0998 569.2 15.9998C569.2 15.7998 569.2 15.5998 569.3 15.3998C569.3 15.1998 569.4 15.0998 569.4 14.9998C569.5 14.8998 569.5 14.7998 569.6 14.7998C569.7 14.6998 569.7 14.6998 569.7 14.6998C569.7 14.6998 569.7 14.6998 569.8 14.6998C569.9 14.6998 570.1 14.6998 570.3 14.7998C570.5 14.8998 570.6 15.0998 570.8 15.2998C571 15.4998 571.1 15.6998 571.3 15.8998C571.5 16.0998 571.7 16.2998 571.9 16.3998L572.1 16.4998C572.2 16.5998 572.3 16.5998 572.5 16.6998C572.7 16.7998 572.8 16.7998 572.9 16.6998H575C575.2 16.6998 575.4 16.6998 575.5 16.5998C575.6 16.4998 575.7 16.4998 575.7 16.3998C575.7 16.2998 575.7 16.1998 575.7 16.0998C575.4 16.0998 575.3 15.9998 575.3 15.8998Z" fill="white"/>
<path d="M536 11.7001C536 9.1001 538.5 6.8001 541.1 6.9001C542.4 6.8001 543.6 7.4001 544.5 8.1001C544.1 8.6001 543.7 9.0001 543.2 9.4001C542 8.6001 540.4 8.4001 539.2 9.3001C537.5 10.4001 537.4 13.1001 539.1 14.3001C540.7 15.7001 543.6 15.0001 544.1 12.9001C543.1 12.9001 542.1 12.9001 541.2 12.9001C541.2 12.3001 541.2 11.8001 541.2 11.2001C542.8 11.2001 546.1 11.2001 546.1 11.2001C546.2 12.6001 546 14.0001 545.2 15.1001C543.9 16.9001 541.3 17.4001 539.3 16.6001C537.3 16.0001 535.8 13.9001 536 11.7001Z" fill="white"/>
<path d="M548.6 9.5H550.3C550.3 10.1 550.3 10.6 550.3 11.2C550.9 11.2 551.4 11.2 552 11.2V12.9C551.4 12.9 550.9 12.9 550.3 12.9C550.3 13.5 550.3 14 550.3 14.6H548.6C548.6 14 548.6 13.5 548.6 12.9C548 12.9 547.5 12.9 546.9 12.9V11.2C547.5 11.2 548 11.2 548.6 11.2C548.6 10.6 548.6 10 548.6 9.5Z" fill="white"/>
<path d="M645.7 9.1001C645.7 9.2001 645.7 9.4001 645.7 9.5001C645.7 13.4001 642.7 17.9001 637.3 17.9001C635.6 17.9001 634.1 17.4001 632.8 16.6001C633 16.6001 633.3 16.6001 633.5 16.6001C634.9 16.6001 636.2 16.1001 637.2 15.3001C635.9 15.3001 634.8 14.4001 634.4 13.2001C634.6 13.2001 634.8 13.3001 635 13.3001C635.3 13.3001 635.5 13.3001 635.8 13.2001C634.4 12.9001 633.4 11.7001 633.4 10.3001C633.8 10.5001 634.3 10.7001 634.7 10.7001C633.9 10.2001 633.4 9.3001 633.4 8.2001C633.4 7.7001 633.5 7.2001 633.8 6.7001C635.3 8.5001 637.4 9.7001 639.9 9.8001C639.9 9.6001 639.8 9.4001 639.8 9.1001C639.8 7.5001 641.1 6.1001 642.8 6.1001C643.6 6.1001 644.4 6.5001 645 7.0001C645.7 6.9001 646.3 6.6001 646.9 6.3001C646.7 7.0001 646.2 7.6001 645.6 7.9001C646.2 7.8001 646.8 7.7001 647.3 7.4001C646.8 8.1001 646.3 8.6001 645.7 9.1001Z" fill="white"/>
<path d="M658.7 4.8999C657.7 4.8999 657 5.4999 657 6.3999C657 7.2999 657.7 7.8999 658.7 7.8999C659.8 7.8999 660.4 7.2999 660.4 6.3999C660.3 5.4999 659.7 4.8999 658.7 4.8999ZM657.3 18.8999H660V9.1999H657.3V18.8999ZM667.7 8.8999C666.1 8.8999 665 9.6999 664.6 10.2999L664.4 9.2999H662V18.9999H664.7V13.1999C664.7 12.8999 664.7 12.5999 664.8 12.4999C665 11.9999 665.7 11.3999 666.5 11.3999C667.6 11.3999 668.3 12.1999 668.3 13.4999V19.0999H671V13.0999C671 10.0999 669.6 8.8999 667.7 8.8999Z" fill="white"/>
<path d="M692.9 31C701.184 31 707.9 24.2843 707.9 16C707.9 7.71573 701.184 1 692.9 1C684.616 1 677.9 7.71573 677.9 16C677.9 24.2843 684.616 31 692.9 31Z" fill="white"/>
<path d="M701.7 19.2002C701.6 20.4002 700.7 21.9002 699.4 22.2002C695.3 22.5002 690.5 22.5002 686.3 22.2002C685 22.0002 684.1 20.4002 684 19.2002C683.8 16.7002 683.8 15.2002 684 12.7002C684.1 11.5002 685 9.9002 686.3 9.8002C690.5 9.5002 695.3 9.5002 699.4 9.8002C700.9 9.9002 701.6 11.4002 701.7 12.6002C702 15.1002 702 16.7002 701.7 19.2002Z" fill="#82BD36"/>
<path d="M691.1 19.6004L696.5 16.0004L691.1 12.4004V19.6004Z" fill="white"/>
<path d="M127.8 200.5C127.7 201.8 126.7 203.5 125.3 203.7C120.8 204 115.4 204 110.7 203.7C109.2 203.5 108.3 201.8 108.2 200.5C108 197.7 108 196.2 108.2 193.4C108.3 192.1 109.3 190.4 110.7 190.2C115.3 189.8 120.7 189.9 125.3 190.2C126.9 190.3 127.7 191.9 127.8 193.2C128.1 196 128.1 197.8 127.8 200.5Z" fill="#82BD36"/>
<path d="M116 200.9L122 197L116 193.1V200.9Z" fill="white"/>
</svg>
