Django==1.8.17
django-model-utils==3.0.0
django-mptt==0.8.7
django-pipeline==1.6.13
django-redis==4.8.0
django-softhyphen==1.1.0
django-solo==1.1.2
django-suit==0.2.25
django-suit-ckeditor==0.0.2
beautifulsoup4==4.6.0
html5lib==0.999999999
csscompressor==0.9.4
jsmin==2.2.2
ipython==6.1.0
pillow==4.1.1
psycopg2==2.7.1
pysyge==0.2.0
pytils==0.3
pytz==2017.2
redis==2.10.5
requests==2.18.1
PyLinkedinAPI==0.1.5
facebook-sdk==2.0.0
python-twitter==3.3

# jinja2==2.9.6
# django_jinja==2.3.1
# jinja2-django-tags==0.5

# premailer==3.0.1
# celery==3.1.23
# django-celery-email==1.1.4
